{
  "files": {
    "main.js": "/static/js/main.07a1e5f8.chunk.js",
    "main.js.map": "/static/js/main.07a1e5f8.chunk.js.map",
    "runtime-main.js": "/static/js/runtime-main.caef6d9b.js",
    "runtime-main.js.map": "/static/js/runtime-main.caef6d9b.js.map",
    "static/css/2.c6231af7.chunk.css": "/static/css/2.c6231af7.chunk.css",
    "static/js/2.053052ac.chunk.js": "/static/js/2.053052ac.chunk.js",
    "static/js/2.053052ac.chunk.js.map": "/static/js/2.053052ac.chunk.js.map",
    "index.html": "/index.html",
    "precache-manifest.01d69f9975827e47f737e1693a155c68.js": "/precache-manifest.01d69f9975827e47f737e1693a155c68.js",
    "service-worker.js": "/service-worker.js",
    "static/css/2.c6231af7.chunk.css.map": "/static/css/2.c6231af7.chunk.css.map"
  }
}